<svg
  xmlns:rdf="http://www.w3.org/1999/02/22-rdf-syntax-ns#"
  xmlns="http://www.w3.org/2000/svg"
  xmlns:cc="http://creativecommons.org/ns#"
  xmlns:dc="http://purl.org/dc/elements/1.1/"
  xmlns:svg="http://www.w3.org/2000/svg"
  xmlns:inkscape="http://www.inkscape.org/namespaces/inkscape"
  xmlns:sodipodi="http://sodipodi.sourceforge.net/DTD/sodipodi-0.dtd"
  xmlns:ns1="http://sozi.baierouge.fr"
  xmlns:xlink="http://www.w3.org/1999/xlink"
  id="svg3609"
  viewBox="0 0 170.34 225.23"
  version="1.1"
  inkscape:version="0.91 r13725"
>
  <title id="title3630">Document</title>
  <g id="layer1" transform="translate(-214.83 -422.6)">
    <g id="g5508" transform="matrix(.75249 0 0 .74028 -205.39 529.81)">
      <path
        id="rect5498"
        style="stroke: #000000; stroke-width: 13.398; fill: none"
        d="m565.12-138.12v290.88h212.75v-220.09l-132.69-70.781h-80.062z"
      ></path>
      <path
        id="rect5500"
        style="fill: #c8b7b7"
        d="m733.52-0.15211 38.078-52.403-132.55-75.159 89.548 121.26 4.9234 6.3024z"
      ></path>
      <path
        id="path5503"
        style="
          stroke-linejoin: round;
          stroke: #000000;
          stroke-linecap: round;
          stroke-width: 13.398;
          fill: #ffffff;
        "
        d="m746.35-38.692 31.77-38.599-129.25-57.927 97.483 96.526z"
      ></path>
    </g>
  </g>
  <metadata>
    <rdf:rdf>
      <cc:work>
        <dc:format>image/svg+xml</dc:format>
        <dc:type
          rdf:resource="http://purl.org/dc/dcmitype/StillImage"
        ></dc:type>
        <cc:license
          rdf:resource="http://creativecommons.org/licenses/publicdomain/"
        ></cc:license>
        <dc:publisher>
          <cc:agent rdf:about="http://openclipart.org/">
            <dc:title>Openclipart</dc:title>
          </cc:agent>
        </dc:publisher>
        <dc:title>Document</dc:title>
        <dc:date>2012-04-08T06:50:33</dc:date>
        <dc:description
          >A document icon from the facilitation set.</dc:description
        >
        <dc:source
          >https://openclipart.org/detail/169416/document-by-bitterjug</dc:source
        >
        <dc:creator>
          <cc:agent>
            <dc:title>bitterjug</dc:title>
          </cc:agent>
        </dc:creator>
        <dc:subject>
          <rdf:bag>
            <rdf:li>Document</rdf:li>
            <rdf:li>abstract</rdf:li>
            <rdf:li>corner</rdf:li>
            <rdf:li>fold</rdf:li>
            <rdf:li>paper</rdf:li>
          </rdf:bag>
        </dc:subject>
      </cc:work>
      <cc:license rdf:about="http://creativecommons.org/licenses/publicdomain/">
        <cc:permits
          rdf:resource="http://creativecommons.org/ns#Reproduction"
        ></cc:permits>
        <cc:permits
          rdf:resource="http://creativecommons.org/ns#Distribution"
        ></cc:permits>
        <cc:permits
          rdf:resource="http://creativecommons.org/ns#DerivativeWorks"
        ></cc:permits>
      </cc:license>
    </rdf:rdf>
  </metadata>
</svg>
