<svg xmlns="http://www.w3.org/2000/svg" width="1280" height="750" viewBox="0 0 1280 750">
  <defs>
    <style>
      .cls-1 {
        fill: #f0f0f0;
      }
    </style>
  </defs>
  <rect class="cls-1" width="640.5" height="750"/>
</svg>
